<svg xmlns="http://www.w3.org/2000/svg" width="45" height="44" viewBox="0 0 45 44">
    <g fill="none" fill-rule="evenodd">
        <circle cx="20" cy="20" r="20" fill="#E4F6FF"/>
        <g stroke="#008BCF" stroke-width="2" transform="translate(6 6)">
            <path fill="#FFF" d="M33 9H5v28h28V9z"/>
            <rect width="32" height="4" x="3" y="5" fill="#FFF" rx="1"/>
            <path fill="#E4F6FF" d="M26 28H12v9h14v-9z"/>
            <path stroke-linecap="round" d="M0 37L38 37M9 16L12 16M9 22L12 22M18 16L21 16M18 22L21 22M26 16L29 16M26 22L29 22M19 31.015L19 34.042"/>
            <path fill="#FFF" d="M26 1H12v4h14V1z"/>
        </g>
    </g>
</svg>
