<svg xmlns="http://www.w3.org/2000/svg" width="24" height="24" viewBox="0 0 24 24">
    <g fill="none" fill-rule="evenodd">
        <path fill="#6E6E6E" fill-rule="nonzero" d="M3 16a1 1 0 0 1 2 0v3h14v-3a1 1 0 0 1 2 0v3a2 2 0 0 1-2 2H5a2 2 0 0 1-2-2v-3zm10-2.411l1.296-1.296a1 1 0 1 1 1.414 1.414l-3.003 3.003a.997.997 0 0 1-1.414 0L8.29 13.707a1 1 0 0 1 1.414-1.414L11 13.589v-9.5a1 1 0 0 1 2 0v9.5z"/>
    </g>
</svg>
