<svg xmlns="http://www.w3.org/2000/svg" width="24" height="24" viewBox="0 0 24 24">
    <g fill="none" fill-rule="evenodd">
        <g>
            <g transform="translate(-537 -413) translate(537 413)">
                <path d="M0 0H24V24H0z"/>
                <path fill="#0090D6" fill-rule="nonzero" d="M18 2c1.105 0 2 .895 2 2v13c0 1.105-.895 2-2 2h-2v3l-3-1.286L10 22v-3H6c-1.054 0-1.918-.816-1.995-1.85L4 17V4c0-1.105.895-2 2-2zm0 2H6v13h4v-3c0-.552.448-1 1-1h4c.552 0 1 .448 1 1v3h2V4z"/>
                <rect width="8" height="2" x="8" y="6" fill="#0090D6" rx="1"/>
            </g>
        </g>
    </g>
</svg>
