<svg width="14" height="12" viewBox="0 0 14 12" fill="none" xmlns="http://www.w3.org/2000/svg">
<g clip-path="url(#clip0)">
<path d="M12.6607 4.75C12.4349 4.75 12.2091 4.68 12.0193 4.555V8.5H1.75672V3H6.1183V2H1.62844C1.13584 2 0.730469 2.395 0.730469 2.875V9.625C0.730469 10.105 1.13584 10.5 1.62844 10.5H12.1475C12.6401 10.5 13.0455 10.105 13.0455 9.625V4.685C12.9224 4.73 12.7941 4.75 12.6607 4.75Z" fill="#86898A"/>
<path d="M8.86575 11.573C8.19201 10.9165 8.17149 10.28 8.17098 10.2485C8.16995 10.111 8.05552 10 7.91441 10H5.85164C5.71002 10 5.59508 10.1135 5.59508 10.2515C5.59508 10.2785 5.58584 10.9155 4.91108 11.5735C4.83771 11.645 4.81564 11.7525 4.85566 11.846C4.89466 11.939 4.98856 12 5.09222 12H8.6841C8.78775 12 8.88166 11.939 8.92117 11.8455C8.96068 11.752 8.93861 11.645 8.86575 11.573Z" fill="#86898A"/>
<path d="M5.86121 6.5C6.428 6.5 6.88747 6.05229 6.88747 5.5C6.88747 4.94772 6.428 4.5 5.86121 4.5C5.29443 4.5 4.83496 4.94772 4.83496 5.5C4.83496 6.05229 5.29443 6.5 5.86121 6.5Z" fill="#86898A"/>
<path d="M7.91458 8.375V8.5H3.80957V8.375C3.80957 7.615 4.44072 7 5.22067 7H6.50348C7.28344 7 7.91458 7.615 7.91458 8.375Z" fill="#86898A"/>
<path d="M12.6604 4.00001C12.5788 4.00001 12.4972 3.97451 12.4295 3.92501L11.4976 3.24401C11.4381 3.67051 11.0615 4.00001 10.6079 4.00001H7.78567C7.2905 4.00001 6.8877 3.60751 6.8877 3.12501V0.75001C6.8877 0.40401 7.12271 9.7835e-06 7.78567 9.7835e-06H10.6079C11.0861 9.7835e-06 11.4781 0.36601 11.5043 0.82551L12.4141 0.0870098C12.528 -0.00649022 12.6881 -0.0264902 12.8235 0.0355098C12.959 0.0975098 13.0452 0.22951 13.0452 0.37501V3.62501C13.0452 3.76701 12.9626 3.89701 12.8323 3.96051C12.7779 3.98701 12.7189 4.00001 12.6604 4.00001Z" fill="#86898A"/>
</g>
<defs>
<clipPath id="clip0">
<rect width="12.315" height="12" fill="white" transform="translate(0.730469)"/>
</clipPath>
</defs>
</svg>
